{
  "shell_port": 34743,
  "iopub_port": 57511,
  "stdin_port": 52927,
  "control_port": 39395,
  "hb_port": 36411,
  "ip": "127.0.0.1",
  "key": "88210660-c88b3abcb3c44407dbd68bed",
  "transport": "tcp",
  "signature_scheme": "hmac-sha256",
  "kernel_name": ""
}